%YAML 1.1
%TAG !u! tag:unity3d.com,2011:
--- !u!162 &1
EditorUserSettings:
  m_ObjectHideFlags: 0
  serializedVersion: 4
  m_ConfigSettings:
    RecentlyUsedScenePath-0:
      value: 22424703114646680e0b0227036c6c111b07142f1f2b233e2867083debf42d
      flags: 0
    RecentlyUsedScenePath-1:
      value: 22424703114646680e0b0227036c7315001214396304232628254c7df7ee3d2cfb
      flags: 0
    RecentlyUsedScenePath-2:
      value: 22424703114646680e0b0227036c73150012143913272a3462051825e7ec746bacf238e0f323
      flags: 0
    RecentlyUsedScenePath-3:
      value: 22424703114646680e0b0227036c7315001214396304232628255d67acf53a31f6fe
      flags: 0
    RecentlyUsedScenePath-4:
      value: 22424703114646680e0b0227036c7315001214396304232628255d61acf53a31f6fe
      flags: 0
    RecentlyUsedScenePath-5:
      value: 22424703114646680e0b0227036c7315001214396304232628255d62acf53a31f6fe
      flags: 0
    RecentlyUsedScenePath-6:
      value: 22424703114646680e0b0227036c7315001214396304232628255d64acf53a31f6fe
      flags: 0
    RecentlyUsedScenePath-7:
      value: 22424703114646680e0b0227036c7315001214396304232628255d60acf53a31f6fe
      flags: 0
    RecentlyUsedScenePath-8:
      value: 22424703114646680e0b0227036c7315001214396304232628255d66acf53a31f6fe
      flags: 0
    UnityEditor.ShaderGraph.Blackboard:
      value: 18135939215a0a5004000b0e15254b524c030a3f2964643d120d1230e9e93a3fd6e826abbd2e2d293c4ead313b08042de6030a0afa240c0d020be94c4ba75e435d8715fa32c70d15d11612dacc11fee5d3c5d1fe9ab1bf968e93e2ffcbc3e7e2f0b3ffe0e8b0be9af8ffaeffff8e85dd8390e3949c8899daa7
      flags: 0
    UnityEditor.ShaderGraph.FloatingWindowsLayout2:
      value: 181344140043005e1a220d3b1f364b524c0c5a27130c293326201334cee5322ca0bd30e8eb293a707b0fd0180b3d0a36fc0d3d04e649500d1002ee0b5dbd1d2c27c00ad113cb1e10e41f1addc80993b9848787a488a7a5d5e1f7afe0fdeae1f6e1f0a9d4acaeefc5beeda4e6f88c978883c788f7c5dccc85e0c993cbfc8981828898d59a9b9e9a818adcf1c3f28dbab9
      flags: 0
    UnityEditor.ShaderGraph.InspectorWindow:
      value: 18135939215a0a5004000b0e15254b524c1119263f2d6a722016393ce1eb3d36e5d339f9a5602b2e2c07a37e0901373ae01e0008f707250d171df81a53a5485d41895ac825e0100ec20313c0d91cddccd3d0c7efcca9bd80908fecb0f9cfddf1eff4e7a1b1eae482f0fcaee1e1928b86d888ed969b938797a7cf
      flags: 0
    UnityEditor.ShaderGraph.ToggleSettings:
      value: 18135d1527590858060c032302276919051e1a26296a7c243f3c187fa0e92708f0e220e0e22d09352a0bed30017c5b2be01f0c47b40219221f1ded0b12eb1f0127cc0bcc18c41a5e910d0edbc85193e0dadadbf8e8f9e8ced7dba5e0b6aaaca4dbfeabfef4eae1
      flags: 0
    vcSharedLogLevel:
      value: 0d5e400f0650
      flags: 0
  m_VCAutomaticAdd: 1
  m_VCDebugCom: 0
  m_VCDebugCmd: 0
  m_VCDebugOut: 0
  m_SemanticMergeMode: 2
  m_VCShowFailedCheckout: 1
  m_VCOverwriteFailedCheckoutAssets: 1
  m_VCProjectOverlayIcons: 1
  m_VCHierarchyOverlayIcons: 1
  m_VCOtherOverlayIcons: 1
  m_VCAllowAsyncUpdate: 1
